{
	"healthy_img_turnover": {
		"name": "Healthy iMG turnover",
		"description": "Got more than 503 iMG per day as a Stipend",
		"category": "Cultivation",
		"imageUrl": "https://childrenofur.com/assets/achievements/healthy_img_turnover.png",
		"related": [
			"raking-in-the-img",
			"the-kindness-of-strangers"
		]
	},
	"raking_in_the_img": {
		"name": "Raking in the iMG",
		"description": "Drew more than 1009 iMG per day in Stipend",
		"category": "Cultivation",
		"imageUrl": "https://childrenofur.com/assets/achievements/raking_in_the_img.png",
		"related": [
			"healthy-img-turnover",
			"the-kindness-of-strangers"
		]
	},
	"the_kindness_of_strangers": {
		"name": "The Kindness of Strangers",
		"description": "Received more than 2503 iMG per day in a Daily Stipend",
		"category": "Cultivation",
		"imageUrl": "https://childrenofur.com/assets/achievements/the_kindness_of_strangers.png",
		"related": [
			"healthy-img-turnover",
			"raking-in-the-img"
		]
	},
	"landgrabber": {
		"name": "Landgrabber",
		"description": "Expanded your home street and yard to their full widths",
		"category": "Cultivation",
		"imageUrl": "https://childrenofur.com/assets/achievements/landgrabber.png",
		"related": [
		]
	},
	"self_sufficientiser": {
		"name": "Self-sufficientiser",
		"description": "Had 7 cultivated resources on your home street",
		"category": "Cultivation",
		"imageUrl": "https://childrenofur.com/assets/achievements/self_sufficientiser.png",
		"related": [
		]
	},
	"cultivation_nurturer": {
		"name": "Cultivation Nurturer",
		"description": "Nursed back to health 3 cultivation projects",
		"category": "Cultivation",
		"imageUrl": "https://childrenofur.com/assets/achievements/cultivation_nurturer.png",
		"related": [
			"make-do-and-mender",
			"restorer-of-stuff"
		]
	},
	"restorer_of_stuff": {
		"name": "Restorer of Stuff",
		"description": "Brought 17 cultivation projects back from the brink",
		"category": "Cultivation",
		"imageUrl": "https://childrenofur.com/assets/achievements/restorer_of_stuff.png",
		"related": [
			"cultivation-nurturer",
			"make-do-and-mender"
		]
	},
	"make_do_and_mender": {
		"name": "Make Do and Mender",
		"description": "Restored 53 cultivation projects",
		"category": "Cultivation",
		"imageUrl": "https://childrenofur.com/assets/achievements/make_do_and_mender.png",
		"related": [
			"cultivation-nurturer",
			"restorer-of-stuff"
		]
	},
	"loyal_tender": {
		"name": "Loyal Tender",
		"description": "Wore out and restored the same cultivated thing 5 times",
		"category": "Cultivation",
		"imageUrl": "https://childrenofur.com/assets/achievements/loyal_tender.png",
		"related": [
		]
	},
	"dedicated_restorationizer": {
		"name": "Dedicated Restorationizer",
		"description": "Wore out and restored the same cultivated item 20 times",
		"category": "Cultivation",
		"imageUrl": "https://childrenofur.com/assets/achievements/dedicated_restorationizer.png",
		"related": [
		]
	}
}
