{
	"candy_muncher": {
		"name": "Candy Muncher",
		"description": "Munched 17 Candy during Zilloween",
		"category": "Seasonal",
		"imageUrl": "https://childrenofur.com/assets/achievements/candy_muncher.png",
		"related": [
			"candy-caner",
			"candy-nommer",
			"candy-snaffler",
			"candy-stripper"
		]
	},
	"candy_snaffler": {
		"name": "Candy Snaffler",
		"description": "Snaffled 43 Candy during Zilloween",
		"category": "Seasonal",
		"imageUrl": "https://childrenofur.com/assets/achievements/candy_snaffler.png",
		"related": [
			"candy-caner",
			"candy-muncher",
			"candy-nommer",
			"candy-stripper"
		]
	},
	"candy_nommer": {
		"name": "Candy Nommer",
		"description": "Nommed 79 Candy during Zilloween",
		"category": "Seasonal",
		"imageUrl": "https://childrenofur.com/assets/achievements/candy_nommer.png",
		"related": [
			"candy-caner",
			"candy-muncher",
			"candy-snaffler",
			"candy-stripper"
		]
	},
	"candy_caner": {
		"name": "Candy Caner",
		"description": "Caned 137 Candy during Zilloween",
		"category": "Seasonal",
		"imageUrl": "https://childrenofur.com/assets/achievements/candy_caner.png",
		"related": [
			"candy-muncher",
			"candy-nommer",
			"candy-snaffler",
			"candy-stripper"
		]
	},
	"candy_stripper": {
		"name": "Candy Stripper",
		"description": "Devoured 353 Candy during Zilloween",
		"category": "Seasonal",
		"imageUrl": "https://childrenofur.com/assets/achievements/candy_stripper.png",
		"related": [
			"candy-caner",
			"candy-muncher",
			"candy-nommer",
			"candy-snaffler"
		]
	},
	"mini_tricksy_treater": {
		"name": "Mini Tricksy-Treater",
		"description": "Gave Candy to 5 Lucky Candy-Munchers during Zilloween",
		"category": "Seasonal",
		"imageUrl": "https://childrenofur.com/assets/achievements/mini_tricksy_treater.png",
		"related": [
			"major-tricksy-treater",
			"minor-tricksy-treater",
			"super-tricksy-treater",
			"the-candyglitch"
		]
	},
	"minor_tricksy_treater": {
		"name": "Minor Tricksy-Treater",
		"description": "Gave Candy to 37 Lucky Candy-Eaters during Zilloween",
		"category": "Seasonal",
		"imageUrl": "https://childrenofur.com/assets/achievements/minor_tricksy_treater.png",
		"related": [
			"major-tricksy-treater",
			"mini-tricksy-treater",
			"super-tricksy-treater",
			"the-candyglitch"
		]
	},
	"major_tricksy_treater": {
		"name": "Major Tricksy-Treater",
		"description": "Gave Candy to 103 Lucky Candy-Biters during Zilloween",
		"category": "Seasonal",
		"imageUrl": "https://childrenofur.com/assets/achievements/major_tricksy_treater.png",
		"related": [
			"mini-tricksy-treater",
			"minor-tricksy-treater",
			"super-tricksy-treater",
			"the-candyglitch"
		]
	},
	"super_tricksy_treater": {
		"name": "Super Tricksy-Treater",
		"description": "Gave Candy to 257 Lucky Candy-Lovers during Zilloween",
		"category": "Seasonal",
		"imageUrl": "https://childrenofur.com/assets/achievements/super_tricksy_treater.png",
		"related": [
			"major-tricksy-treater",
			"mini-tricksy-treater",
			"minor-tricksy-treater",
			"the-candyglitch"
		]
	},
	"the_candyglitch": {
		"name": "The Candyglitch",
		"description": "Gave Candy to 499 Lucky Candy-Lickers during Zilloween",
		"category": "Seasonal",
		"imageUrl": "https://childrenofur.com/assets/achievements/the_candyglitch.png",
		"related": [
			"major-tricksy-treater",
			"mini-tricksy-treater",
			"minor-tricksy-treater",
			"super-tricksy-treater"
		]
	},
	"pumpkin_carver": {
		"name": "Pumpkin Carver",
		"description": "Carved the full collection of Pumpkins",
		"category": "Seasonal",
		"imageUrl": "https://childrenofur.com/assets/achievements/pumpkin_carver.png",
		"related": [
		]
	},
	"lanternerer": {
		"name": "Lanternerer",
		"description": "Lit and Displayed a Pumpkin Lantern",
		"category": "Seasonal",
		"imageUrl": "https://childrenofur.com/assets/achievements/lanternerer.png",
		"related": [
		]
	}
}
