{
	"gumflapper": {
		"name": "Gumflapper",
		"description": "Chatted with 3 different players",
		"category": "Social",
		"imageUrl": "https://childrenofur.com/assets/achievements/gumflapper.png",
		"related": [
			"chatterbox",
			"coat-of-open-arms",
			"competent-windbag",
			"garrulous-prolixificator"
		]
	},
	"chatterbox": {
		"name": "Chatterbox",
		"description": "Chatted with 11 different players",
		"category": "Social",
		"imageUrl": "https://childrenofur.com/assets/achievements/chatterbox.png",
		"related": [
			"coat-of-open-arms",
			"competent-windbag",
			"garrulous-prolixificator",
			"gumflapper"
		]
	},
	"competent_windbag": {
		"name": "Competent Windbag",
		"description": "Chatted with 29 different players",
		"category": "Social",
		"imageUrl": "https://childrenofur.com/assets/achievements/competent_windbag.png",
		"related": [
			"chatterbox",
			"coat-of-open-arms",
			"garrulous-prolixificator",
			"gumflapper"
		]
	},
	"garrulous_prolixificator": {
		"name": "Garrulous Prolixificator",
		"description": "Chatted with 83 different players",
		"category": "Social",
		"imageUrl": "https://childrenofur.com/assets/achievements/garrulous_prolixificator.png",
		"related": [
			"chatterbox",
			"coat-of-open-arms",
			"competent-windbag",
			"gumflapper"
		]
	},
	"coat_of_open_arms": {
		"name": "Coat of Open Arms",
		"description": "Chatted with 251 different players",
		"category": "Social",
		"imageUrl": "https://childrenofur.com/assets/achievements/coat_of_open_arms.png",
		"related": [
			"chatterbox",
			"competent-windbag",
			"garrulous-prolixificator",
			"gumflapper"
		]
	},
	"make_a_crab_happy": {
		"name": "Make a Crab Happy",
		"description": "Played the exact Music Block for the Crab, which he has heard the LEAST recently.",
		"category": "Social",
		"imageUrl": "https://childrenofur.com/assets/achievements/make_a_crab_happy.png",
		"related": [
		]
	},
	"philanthropic_member_of_the_social_construct": {
		"name": "Philanthropic Member of the Social Construct",
		"description": "Contributed more than 50% to the completion of another player's restoration project",
		"category": "Social",
		"imageUrl": "https://childrenofur.com/assets/achievements/philanthropic_member_of_the_social_construct.png",
		"related": [
		]
	},
	"daily_hi_skipper": {
		"name": "The Daily Hi-Skipper",
		"description": "Set one Daily Record for Hi Sign evasion in a location. Daily Records are recognized at the end of each game day",
		"category": "Social",
		"imageUrl": "https://childrenofur.com/assets/achievements/daily_hi_skipper.png",
		"related": [
			"endurance-misanthrope",
			"long-distance-lone-wolf",
			"marathon-maverick",
			"social-antisocialist"
		]
	},
	"social_antisocialist": {
		"name": "Social Antisocialist",
		"description": "Set 7 Daily Records for Hi Sign evasion. Daily Records are recognized at the end of each game day",
		"category": "Social",
		"imageUrl": "https://childrenofur.com/assets/achievements/social_hi_skipper.png",
		"related": [
			"daily-hi-skipper",
			"endurance-misanthrope",
			"long-distance-lone-wolf",
			"marathon-maverick"
		]
	},
	"marathon_maverick": {
		"name": "Marathon Maverick",
		"description": "Set 37 Daily Records for Hi Sign evasion. Daily Records are recognized at the end of each game day",
		"category": "Social",
		"imageUrl": "https://childrenofur.com/assets/achievements/antisocial_hi_skipper.png",
		"related": [
			"daily-hi-skipper",
			"endurance-misanthrope",
			"long-distance-lone-wolf",
			"social-antisocialist"
		]
	},
	"long_distance_lone_wolf": {
		"name": "Long-Distance Lone Wolf",
		"description": "Set 137 Daily Records for Hi Sign evasion. Daily Records are recognized at the end of each game day",
		"category": "Social",
		"imageUrl": "https://childrenofur.com/assets/achievements/long_distance_hi_skipper.png",
		"related": [
			"daily-hi-skipper",
			"endurance-misanthrope",
			"marathon-maverick",
			"social-antisocialist"
		]
	},
	"endurance_misanthrope": {
		"name": "Endurance Misanthrope",
		"description": "Set 547 Daily Records for Hi Sign evasion. Daily Records are recognized at the end of each game day",
		"category": "Social",
		"imageUrl": "https://childrenofur.com/assets/achievements/endurance_hi_skipper.png",
		"related": [
			"daily-hi-skipper",
			"long-distance-lone-wolf",
			"marathon-maverick",
			"social-antisocialist"
		]
	},
	"stalker_noncreepy_designation": {
		"name": "Stalker, Non-Creepy Designation",
		"description": "Officially followed another player through 3 different streets",
		"category": "Social",
		"imageUrl": "https://childrenofur.com/assets/achievements/stalker_noncreepy_designation.png",
		"related": [
		]
	},
	"glitch_train": {
		"name": "Glitch Train",
		"description": "Participated in a 20-player follow-me parade through 5 locations",
		"category": "Social",
		"imageUrl": "https://childrenofur.com/assets/achievements/glitch_train.png",
		"related": [
		]
	},
	"fine_friend": {
		"name": "Fine Friend",
		"description": "Made 7 friends",
		"category": "Social",
		"imageUrl": "https://childrenofur.com/assets/achievements/fine_friend.png",
		"related": [
			"a1-comrade",
			"best-pal",
			"good-buddy",
			"jolly-good-chap"
		]
	},
	"good_buddy": {
		"name": "Good Buddy",
		"description": "Made 23 friends",
		"category": "Social",
		"imageUrl": "https://childrenofur.com/assets/achievements/good_buddy.png",
		"related": [
			"a1-comrade",
			"best-pal",
			"fine-friend",
			"jolly-good-chap"
		]
	},
	"jolly_good_chap": {
		"name": "Jolly Good Chap",
		"description": "Made 47 friends",
		"category": "Social",
		"imageUrl": "https://childrenofur.com/assets/achievements/jolly_good_chap.png",
		"related": [
			"a1-comrade",
			"best-pal",
			"fine-friend",
			"good-buddy"
		]
	},
	"a1_comrade": {
		"name": "A-1 Comrade",
		"description": "Made 79 friends",
		"category": "Social",
		"imageUrl": "https://childrenofur.com/assets/achievements/a1_comrade.png",
		"related": [
			"best-pal",
			"fine-friend",
			"good-buddy",
			"jolly-good-chap"
		]
	},
	"best_pal": {
		"name": "Best Pal",
		"description": "Made 111 friends",
		"category": "Social",
		"imageUrl": "https://childrenofur.com/assets/achievements/best_pal.png",
		"related": [
			"a1-comrade",
			"fine-friend",
			"good-buddy",
			"jolly-good-chap"
		]
	},
	"good_neighbour": {
		"name": "Good Neighbour",
		"description": "Added 5 friends to your signpost",
		"category": "Social",
		"imageUrl": "https://childrenofur.com/assets/achievements/good_neighbour.png",
		"related": [
		]
	},
	"social_butterfly": {
		"name": "Social Butterfly",
		"description": "Cheerfully said Hi to 53 different players in one game day",
		"category": "Social",
		"imageUrl": "https://childrenofur.com/assets/achievements/social_butterfly.png",
		"related": [
			"hi-and-mighty",
			"member-of-hi-society"
		]
	},
	"hi_and_mighty": {
		"name": "Hi and Mighty",
		"description": "Got a Mega-Hi 17 times in one game day",
		"category": "Social",
		"imageUrl": "https://childrenofur.com/assets/achievements/hi_and_mighty.png",
		"related": [
			"member-of-hi-society",
			"social-butterfly"
		]
	},
	"member_of_hi_society": {
		"name": "Member of Hi Society",
		"description": "Greeted players with all 11 Hi Sign variations",
		"category": "Social",
		"imageUrl": "https://childrenofur.com/assets/achievements/member_of_hi_society.png",
		"related": [
			"hi-and-mighty",
			"social-butterfly"
		]
	},
	"hi_flyer": {
		"name": "Hi Flyer",
		"description": "Evaded a Hi Sign for 11 seconds",
		"category": "Social",
		"imageUrl": "https://childrenofur.com/assets/achievements/hi_flyer.png",
		"related": [
			"hi-speed-chase",
			"hi-velocity",
			"the-motorboat"
		]
	},
	"hi_speed_chase": {
		"name": "Hi Speed Chase",
		"description": "Avoided a Hi Sign for 61 seconds",
		"category": "Social",
		"imageUrl": "https://childrenofur.com/assets/achievements/hi_speed_chase.png",
		"related": [
			"hi-flyer",
			"hi-velocity",
			"the-motorboat"
		]
	},
	"hi_velocity": {
		"name": "Hi Velocity",
		"description": "Eluded a Hi Sign for 151 seconds",
		"category": "Social",
		"imageUrl": "https://childrenofur.com/assets/achievements/hi_as_a_kite.png",
		"related": [
			"hi-flyer",
			"hi-speed-chase",
			"the-motorboat"
		]
	},
	"the_motorboat": {
		"name": "The Motorboat",
		"description": "Outwitted a Hi Sign for 311 seconds",
		"category": "Social",
		"imageUrl": "https://childrenofur.com/assets/achievements/hi_velocity.png",
		"related": [
			"hi-flyer",
			"hi-speed-chase",
			"hi-velocity"
		]
	},
	"sociable_susan": {
		"name": "Sociable Susan",
		"description": "Visited 23 different home streets",
		"category": "Social",
		"imageUrl": "https://childrenofur.com/assets/achievements/sociable_susan.png",
		"related": [
			"affable-anthony",
			"gregarious-gunther"
		]
	},
	"affable_anthony": {
		"name": "Affable Anthony",
		"description": "Popped round to 101 different home streets",
		"category": "Social",
		"imageUrl": "https://childrenofur.com/assets/achievements/affable_anthony.png",
		"related": [
			"gregarious-gunther",
			"sociable-susan"
		]
	},
	"gregarious_gunther": {
		"name": "Gregarious Gunther",
		"description": "Sojourned on 503 separate home streets",
		"category": "Social",
		"imageUrl": "https://childrenofur.com/assets/achievements/gregarious_gunther.png",
		"related": [
			"affable-anthony",
			"sociable-susan"
		]
	},
	"decent_citizen": {
		"name": "Decent Citizen",
		"description": "Gave 11 gifts to other players",
		"category": "Social",
		"imageUrl": "https://childrenofur.com/assets/achievements/decent_citizen.png",
		"related": [
			"noble-philanthropizer",
			"pretty-good-samaritan"
		]
	},
	"pretty_good_samaritan": {
		"name": "Pretty Good Samaritan",
		"description": "Gave 29 gifts to other players",
		"category": "Social",
		"imageUrl": "https://childrenofur.com/assets/achievements/pretty_good_samaritan.png",
		"related": [
			"decent-citizen",
			"noble-philanthropizer"
		]
	},
	"noble_philanthropizer": {
		"name": "Noble Philanthropizer",
		"description": "Gave 79 gifts to other players",
		"category": "Social",
		"imageUrl": "https://childrenofur.com/assets/achievements/noble_philanthropizer.png",
		"related": [
			"decent-citizen",
			"pretty-good-samaritan"
		]
	},
	"hi_baller": {
		"name": "Hi Baller",
		"description": "Made friends with a Mega-Hi 13 times over",
		"category": "Social",
		"imageUrl": "https://childrenofur.com/assets/achievements/hi_baller.png",
		"related": [
			"hi-priest",
			"master-of-the-hi-coup"
		]
	},
	"hi_priest": {
		"name": "Hi Priest",
		"description": "Achieved a Mega-Hi 79 times",
		"category": "Social",
		"imageUrl": "https://childrenofur.com/assets/achievements/hi_priest.png",
		"related": [
			"hi-baller",
			"master-of-the-hi-coup"
		]
	},
	"master_of_the_hi_coup": {
		"name": "Master of the Hi Coup",
		"description": "Hit the Mega-Hi 311 times",
		"category": "Social",
		"imageUrl": "https://childrenofur.com/assets/achievements/master_of_the_hi_coup.png",
		"related": [
			"hi-baller",
			"hi-priest"
		]
	},
	"crowded_house": {
		"name": "Crowded House",
		"description": "Graciously hosted three guests at once in your house",
		"category": "Social",
		"imageUrl": "https://childrenofur.com/assets/achievements/crowded_house.png",
		"related": [
			"epic-blowout",
			"house-party"
		]
	},
	"house_party": {
		"name": "House Party",
		"description": "Generously hosted 17 guests in your house",
		"category": "Social",
		"imageUrl": "https://childrenofur.com/assets/achievements/house_party.png",
		"related": [
			"crowded-house",
			"epic-blowout"
		]
	},
	"epic_blowout": {
		"name": "Epic Blowout",
		"description": "Attended a house party containing 11 guests under the influence.",
		"category": "Social",
		"imageUrl": "https://childrenofur.com/assets/achievements/epic_blowout.png",
		"related": [
			"crowded-house",
			"house-party"
		]
	},
	"hanky_splanky": {
		"name": "Hanky Splanky",
		"description": "Administered fun-but-firm splankings to 23 players",
		"category": "Social",
		"imageUrl": "https://childrenofur.com/assets/achievements/hanky_splanky.png",
		"related": [
		]
	},
	"trader_joe": {
		"name": "Trader Joe",
		"description": "Traded with other players 3 times",
		"category": "Social",
		"imageUrl": "https://childrenofur.com/assets/achievements/trader_joe.png",
		"related": [
			"trader-carl",
			"trader-vic"
		]
	},
	"trader_vic": {
		"name": "Trader Vic",
		"description": "Traded with other players 17 times",
		"category": "Social",
		"imageUrl": "https://childrenofur.com/assets/achievements/trader_vic.png",
		"related": [
			"trader-carl",
			"trader-joe"
		]
	},
	"trader_carl": {
		"name": "Trader Carl",
		"description": "Traded with other players 41 times",
		"category": "Social",
		"imageUrl": "https://childrenofur.com/assets/achievements/trader_carl.png",
		"related": [
			"trader-joe",
			"trader-vic"
		]
	},
	"humble_bragger": {
		"name": "Humble Bragger",
		"description": "Displayed 11 trophies in your home",
		"category": "Social",
		"imageUrl": "https://childrenofur.com/assets/achievements/humble_bragger.png",
		"related": [
		]
	}
}
