{
	"amateur_bean_tree_fondler": {
		"name": "Amateur Bean Tree Fondler",
		"description": "Affectionately petted 11 Bean Trees",
		"category": "Trees",
		"imageUrl": "https://childrenofur.com/assets/achievements/amateur_bean_tree_fondler.png",
		"related": [
			"notquitepro-bean-tree-fondler",
			"professional-bean-tree-fondler"
		]
	},
	"notquitepro_bean_tree_fondler": {
		"name": "Not-Quite-Pro Bean Tree Fondler",
		"description": "Tenderly petted 41 Bean Trees",
		"category": "Trees",
		"imageUrl": "https://childrenofur.com/assets/achievements/notquitepro_bean_tree_fondler.png",
		"related": [
			"amateur-bean-tree-fondler",
			"professional-bean-tree-fondler"
		]
	},
	"professional_bean_tree_fondler": {
		"name": "Professional Bean Tree Fondler",
		"description": "Lovingly petted 127 Bean Trees",
		"category": "Trees",
		"imageUrl": "https://childrenofur.com/assets/achievements/professional_bean_tree_fondler.png",
		"related": [
			"amateur-bean-tree-fondler",
			"notquitepro-bean-tree-fondler"
		]
	},
	"rainmaking_noob": {
		"name": "Rainmaking Noob",
		"description": "Dispensed a good watering to 11 Bean Trees",
		"category": "Trees",
		"imageUrl": "https://childrenofur.com/assets/achievements/rainmaking_noob.png",
		"related": [
			"betterthanlousy-douser",
			"the-dampinator"
		]
	},
	"betterthanlousy_douser": {
		"name": "Better-Than-Lousy Douser",
		"description": "Dispensed a good watering to 41 Bean Trees",
		"category": "Trees",
		"imageUrl": "https://childrenofur.com/assets/achievements/betterthanlousy_douser.png",
		"related": [
			"rainmaking-noob",
			"the-dampinator"
		]
	},
	"the_dampinator": {
		"name": "The Dampinator",
		"description": "Dispensed a good watering to 127 Bean Trees",
		"category": "Trees",
		"imageUrl": "https://childrenofur.com/assets/achievements/the_dampinator.png",
		"related": [
			"betterthanlousy-douser",
			"rainmaking-noob"
		]
	},
	"participant_award_bean_division": {
		"name": "Participant Award - Bean Division",
		"description": "Harvested 101 Beans",
		"category": "Trees",
		"imageUrl": "https://childrenofur.com/assets/achievements/participant_award__bean_division.png",
		"related": [
			"bean-counter",
			"bean-counter-pro",
			"master-bean-counter"
		]
	},
	"bean_counter": {
		"name": "Bean Counter",
		"description": "Harvested 503 Beans",
		"category": "Trees",
		"imageUrl": "https://childrenofur.com/assets/achievements/bean_counter.png",
		"related": [
			"bean-counter-pro",
			"master-bean-counter",
			"participant-award--bean-division"
		]
	},
	"bean_counter_pro": {
		"name": "Bean Counter Pro",
		"description": "Harvested 1009 Beans",
		"category": "Trees",
		"imageUrl": "https://childrenofur.com/assets/achievements/bean_counter_pro.png",
		"related": [
			"bean-counter",
			"master-bean-counter",
			"participant-award--bean-division"
		]
	},
	"master_bean_counter": {
		"name": "Master Bean Counter",
		"description": "Harvested 5003 Beans",
		"category": "Trees",
		"imageUrl": "https://childrenofur.com/assets/achievements/master_bean_counter.png",
		"related": [
			"bean-counter",
			"bean-counter-pro",
			"participant-award--bean-division"
		]
	},
	"beanorator_2nd_class": {
		"name": "Beanorator 2nd Class",
		"description": "Seasoned 53 Beans",
		"category": "Trees",
		"imageUrl": "https://childrenofur.com/assets/achievements/beanorator_2nd_class.png",
		"related": [
			"beanorator-1st-class",
			"generalissimo-beanorator"
		]
	},
	"beanorator_1st_class": {
		"name": "Beanorator 1st Class",
		"description": "Seasoned a whopping 503 Beans",
		"category": "Trees",
		"imageUrl": "https://childrenofur.com/assets/achievements/beanorator_1st_class.png",
		"related": [
			"beanorator-2nd-class",
			"generalissimo-beanorator"
		]
	},
	"generalissimo_beanorator": {
		"name": "Generalissimo Beanorator",
		"description": "Seasoned a gob-smacking 2003 Beans",
		"category": "Trees",
		"imageUrl": "https://childrenofur.com/assets/achievements/generalissimo_beanorator.png",
		"related": [
			"beanorator-1st-class",
			"beanorator-2nd-class"
		]
	},
	"rookie_bubble_tree_cuddler": {
		"name": "Rookie Bubble Tree Cuddler",
		"description": "Petted 11 deserving Bubble Trees",
		"category": "Trees",
		"imageUrl": "https://childrenofur.com/assets/achievements/rookie_bubble_tree_cuddler.png",
		"related": [
			"chief-bubble-tree-cuddler",
			"midlevel-bubble-tree-cuddler"
		]
	},
	"midlevel_bubble_tree_cuddler": {
		"name": "Mid-Level Bubble Tree Cuddler",
		"description": "Petted 41 deserving Bubble Trees",
		"category": "Trees",
		"imageUrl": "https://childrenofur.com/assets/achievements/midlevel_bubble_tree_cuddler.png",
		"related": [
			"chief-bubble-tree-cuddler",
			"rookie-bubble-tree-cuddler"
		]
	},
	"chief_bubble_tree_cuddler": {
		"name": "Chief Bubble Tree Cuddler",
		"description": "Petted 127 deserving Bubble Trees",
		"category": "Trees",
		"imageUrl": "https://childrenofur.com/assets/achievements/chief_bubble_tree_cuddler.png",
		"related": [
			"midlevel-bubble-tree-cuddler",
			"rookie-bubble-tree-cuddler"
		]
	},
	"water_wings": {
		"name": "Water Wings",
		"description": "Doled out waterings to 11 thirsty Bubble Trees",
		"category": "Trees",
		"imageUrl": "https://childrenofur.com/assets/achievements/water_wings.png",
		"related": [
			"senor-sprinkles",
			"the-saturator"
		]
	},
	"senor_sprinkles": {
		"name": "Señor Sprinkles",
		"description": "Doled out waterings to 41 thirsty Bubble Trees",
		"category": "Trees",
		"imageUrl": "https://childrenofur.com/assets/achievements/senor_sprinkles.png",
		"related": [
			"the-saturator",
			"water-wings"
		]
	},
	"the_saturator": {
		"name": "The Saturator",
		"description": "Doled out waterings to 127 thirsty Bubble Trees",
		"category": "Trees",
		"imageUrl": "https://childrenofur.com/assets/achievements/the_saturator.png",
		"related": [
			"senor-sprinkles",
			"water-wings"
		]
	},
	"good_bubble_farmer": {
		"name": "Good Bubble Farmer",
		"description": "Ever-so-carefully harvested 101 Bubbles",
		"category": "Trees",
		"imageUrl": "https://childrenofur.com/assets/achievements/good_bubble_farmer.png",
		"related": [
			"better-bubble-farmer",
			"firstbest-bubble-farmer",
			"secondbest-bubble-farmer"
		]
	},
	"better_bubble_farmer": {
		"name": "Better Bubble Farmer",
		"description": "Ever-so-carefully harvested 503 Bubbles",
		"category": "Trees",
		"imageUrl": "https://childrenofur.com/assets/achievements/better_bubble_farmer.png",
		"related": [
			"firstbest-bubble-farmer",
			"good-bubble-farmer",
			"secondbest-bubble-farmer"
		]
	},
	"secondbest_bubble_farmer": {
		"name": "Second-Best Bubble Farmer",
		"description": "Ever-so-carefully harvested 1009 Bubbles",
		"category": "Trees",
		"imageUrl": "https://childrenofur.com/assets/achievements/secondbest_bubble_farmer.png",
		"related": [
			"better-bubble-farmer",
			"firstbest-bubble-farmer",
			"good-bubble-farmer"
		]
	},
	"firstbest_bubble_farmer": {
		"name": "First-Best Bubble Farmer",
		"description": "Ever-so-carefully harvested 5003 Bubbles",
		"category": "Trees",
		"imageUrl": "https://childrenofur.com/assets/achievements/firstbest_bubble_farmer.png",
		"related": [
			"better-bubble-farmer",
			"good-bubble-farmer",
			"secondbest-bubble-farmer"
		]
	},
	"bubble_coaxer": {
		"name": "Bubble Coaxer",
		"description": "Transformed 53 Bubbles",
		"category": "Trees",
		"imageUrl": "https://childrenofur.com/assets/achievements/bubble_coaxer.png",
		"related": [
			"bubble-transubstantiator",
			"effervescence-consultant"
		]
	},
	"effervescence_consultant": {
		"name": "Effervescence Consultant",
		"description": "Converted no fewer than 503 Bubbles",
		"category": "Trees",
		"imageUrl": "https://childrenofur.com/assets/achievements/effervescence_consultant.png",
		"related": [
			"bubble-coaxer",
			"bubble-transubstantiator"
		]
	},
	"bubble_transubstantiator": {
		"name": "Bubble Transubstantiator",
		"description": "Converted an almost inconceivable 2003 Bubbles",
		"category": "Trees",
		"imageUrl": "https://childrenofur.com/assets/achievements/bubble_transubstantiator.png",
		"related": [
			"bubble-coaxer",
			"effervescence-consultant"
		]
	},
	"nouveau_whack_job": {
		"name": "Nouveau Whack Job",
		"description": "Used a Hatchet to clear 11 dead Trees",
		"category": "Trees",
		"imageUrl": "https://childrenofur.com/assets/achievements/nouveau_whack_job.png",
		"related": [
			"paul-bunions",
			"regular-whack-job",
			"whack-job-deluxe",
			"whack-job-extraordinaire"
		]
	},
	"regular_whack_job": {
		"name": "Regular Whack Job",
		"description": "Used a Hatchet to clear 53 dead Trees",
		"category": "Trees",
		"imageUrl": "https://childrenofur.com/assets/achievements/regular_whack_job.png",
		"related": [
			"nouveau-whack-job",
			"paul-bunions",
			"whack-job-deluxe",
			"whack-job-extraordinaire"
		]
	},
	"whack_job_deluxe": {
		"name": "Whack Job Deluxe",
		"description": "Used a Hatchet to clear 151 dead Trees",
		"category": "Trees",
		"imageUrl": "https://childrenofur.com/assets/achievements/whack_job_deluxe.png",
		"related": [
			"nouveau-whack-job",
			"paul-bunions",
			"regular-whack-job",
			"whack-job-extraordinaire"
		]
	},
	"whack_job_extraordinaire": {
		"name": "Whack Job Extraordinaire",
		"description": "Used a Hatchet to clear 401 dead Trees",
		"category": "Trees",
		"imageUrl": "https://childrenofur.com/assets/achievements/whack_job_extraordinaire.png",
		"related": [
			"nouveau-whack-job",
			"paul-bunions",
			"regular-whack-job",
			"whack-job-deluxe"
		]
	},
	"paul_bunions": {
		"name": "Paul Bunions",
		"description": "Used a Hatchet to clear 1009 dead Trees",
		"category": "Trees",
		"imageUrl": "https://childrenofur.com/assets/achievements/paul_bunions.png",
		"related": [
			"nouveau-whack-job",
			"regular-whack-job",
			"whack-job-deluxe",
			"whack-job-extraordinaire"
		]
	},
	"egg_plant_coddler": {
		"name": "Egg Plant Coddler",
		"description": "Administered firm pettings to 11 Egg Plants",
		"category": "Trees",
		"imageUrl": "https://childrenofur.com/assets/achievements/egg_plant_coddler.png",
		"related": [
			"super-supreme-egg-plant-coddler",
			"supreme-egg-plant-coddler"
		]
	},
	"supreme_egg_plant_coddler": {
		"name": "Supreme Egg Plant Coddler",
		"description": "Administered life-sustaining pettings to 41 Egg Plants",
		"category": "Trees",
		"imageUrl": "https://childrenofur.com/assets/achievements/supreme_egg_plant_coddler.png",
		"related": [
			"egg-plant-coddler",
			"super-supreme-egg-plant-coddler"
		]
	},
	"super_supreme_egg_plant_coddler": {
		"name": "Super Supreme Egg Plant Coddler",
		"description": "Administered firm, life-sustaining pettings to 127 Egg Plants",
		"category": "Trees",
		"imageUrl": "https://childrenofur.com/assets/achievements/super_supreme_egg_plant_coddler.png",
		"related": [
			"egg-plant-coddler",
			"supreme-egg-plant-coddler"
		]
	},
	"junior_irrigationist": {
		"name": "Junior Irrigationist",
		"description": "Wetly watered 11 Egg Plants",
		"category": "Trees",
		"imageUrl": "https://childrenofur.com/assets/achievements/junior_irrigationist.png",
		"related": [
			"about-average-irrigationist",
			"compulsive-moisturizer"
		]
	},
	"about_average_irrigationist": {
		"name": "About Average Irrigationist",
		"description": "Wetly watered 41 Egg Plants",
		"category": "Trees",
		"imageUrl": "https://childrenofur.com/assets/achievements/about_average_irrigationist.png",
		"related": [
			"compulsive-moisturizer",
			"junior-irrigationist"
		]
	},
	"compulsive_moisturizer": {
		"name": "Compulsive Moisturizer",
		"description": "Wetly watered 127 Egg Plants",
		"category": "Trees",
		"imageUrl": "https://childrenofur.com/assets/achievements/compulsive_moisturizer.png",
		"related": [
			"about-average-irrigationist",
			"junior-irrigationist"
		]
	},
	"egg_enthusiast": {
		"name": "Egg Enthusiast",
		"description": "Gently harvested 101 Eggs",
		"category": "Trees",
		"imageUrl": "https://childrenofur.com/assets/achievements/egg_enthusiast.png",
		"related": [
			"egg-aficianado",
			"egg-freak",
			"egg-poacher"
		]
	},
	"egg_poacher": {
		"name": "Egg Poacher",
		"description": "Gently harvested 503 Eggs",
		"category": "Trees",
		"imageUrl": "https://childrenofur.com/assets/achievements/egg_poacher.png",
		"related": [
			"egg-aficianado",
			"egg-enthusiast",
			"egg-freak"
		]
	},
	"egg_aficianado": {
		"name": "Egg Aficionado",
		"description": "Gently harvested 1009 Eggs",
		"category": "Trees",
		"imageUrl": "https://childrenofur.com/assets/achievements/egg_aficianado.png",
		"related": [
			"egg-enthusiast",
			"egg-freak",
			"egg-poacher"
		]
	},
	"egg_freak": {
		"name": "Egg Freak",
		"description": "Gently harvested 5003 Eggs",
		"category": "Trees",
		"imageUrl": "https://childrenofur.com/assets/achievements/egg_freak.png",
		"related": [
			"egg-aficianado",
			"egg-enthusiast",
			"egg-poacher"
		]
	},
	"novice_fruit_metamorphosizer": {
		"name": "Novice Fruit Metamorphosizer",
		"description": "Converted 53 Fruit",
		"category": "Trees",
		"imageUrl": "https://childrenofur.com/assets/achievements/novice_fruit_metamorphosizer.png",
		"related": [
			"fruit-metamorphosizin-tycoon",
			"intermediate-fruit-metamorphosizer"
		]
	},
	"intermediate_fruit_metamorphosizer": {
		"name": "Intermediate Fruit Metamorphosizer",
		"description": "Converted 503 Fruit",
		"category": "Trees",
		"imageUrl": "https://childrenofur.com/assets/achievements/intermediate_fruit_metamorphosizer.png",
		"related": [
			"fruit-metamorphosizin-tycoon",
			"novice-fruit-metamorphosizer"
		]
	},
	"fruit_metamorphosizin_tycoon": {
		"name": "Fruit Metamorphosizin' Tycoon",
		"description": "Converted 2003 Fruit",
		"category": "Trees",
		"imageUrl": "https://childrenofur.com/assets/achievements/fruit_metamorphosizin_tycoon.png",
		"related": [
			"intermediate-fruit-metamorphosizer",
			"novice-fruit-metamorphosizer"
		]
	},
	"newbie_fruit_tree_pettifier": {
		"name": "Newbie Fruit Tree Pettifier",
		"description": "Pettified 11 Fruit Trees",
		"category": "Trees",
		"imageUrl": "https://childrenofur.com/assets/achievements/newbie_fruit_tree_pettifier.png",
		"related": [
			"betterthanmediocre-fruit-tree-pettifier",
			"masterful-fruit-tree-pettifier"
		]
	},
	"betterthanmediocre_fruit_tree_pettifier": {
		"name": "Better-Than-Mediocre Fruit Tree Pettifier",
		"description": "Satisfactorily pettified 41 Fruit Trees",
		"category": "Trees",
		"imageUrl": "https://childrenofur.com/assets/achievements/betterthanmediocre_fruit_tree_pettifier.png",
		"related": [
			"masterful-fruit-tree-pettifier",
			"newbie-fruit-tree-pettifier"
		]
	},
	"masterful_fruit_tree_pettifier": {
		"name": "Masterful Fruit Tree Pettifier",
		"description": "Thoroughly pettified 127 Fruit Trees",
		"category": "Trees",
		"imageUrl": "https://childrenofur.com/assets/achievements/masterful_fruit_tree_pettifier.png",
		"related": [
			"betterthanmediocre-fruit-tree-pettifier",
			"newbie-fruit-tree-pettifier"
		]
	},
	"ok_soaker": {
		"name": "OK Soaker",
		"description": "Watered 11 parched Fruit Trees",
		"category": "Trees",
		"imageUrl": "https://childrenofur.com/assets/achievements/ok_soaker.png",
		"related": [
			"super-duper-soaker",
			"super-soaker"
		]
	},
	"super_soaker": {
		"name": "Super Soaker",
		"description": "Watered 41 parched Fruit Trees",
		"category": "Trees",
		"imageUrl": "https://childrenofur.com/assets/achievements/super_soaker.png",
		"related": [
			"ok-soaker",
			"super-duper-soaker"
		]
	},
	"super_duper_soaker": {
		"name": "Super Duper Soaker",
		"description": "Watered 127 parched Fruit Trees",
		"category": "Trees",
		"imageUrl": "https://childrenofur.com/assets/achievements/super_duper_soaker.png",
		"related": [
			"ok-soaker",
			"super-soaker"
		]
	},
	"entrylevel_fruit_tree_harvester": {
		"name": "Entry-Level Fruit Tree Harvester",
		"description": "Plucked 101 pieces of Fruit",
		"category": "Trees",
		"imageUrl": "https://childrenofur.com/assets/achievements/entrylevel_fruit_tree_harvester.png",
		"related": [
			"midmanagement-fruit-tree-harvester",
			"overpaid-executive-fruit-tree-harvester",
			"president-and-ceo-of-fruit-tree-harvesting-inc"
		]
	},
	"midmanagement_fruit_tree_harvester": {
		"name": "Mid-Management Fruit Tree Harvester",
		"description": "Plucked 503 pieces of Fruit",
		"category": "Trees",
		"imageUrl": "https://childrenofur.com/assets/achievements/midmanagement_fruit_tree_harvester.png",
		"related": [
			"entrylevel-fruit-tree-harvester",
			"overpaid-executive-fruit-tree-harvester",
			"president-and-ceo-of-fruit-tree-harvesting-inc"
		]
	},
	"overpaid_executive_fruit_tree_harvester": {
		"name": "Overpaid Executive Fruit Tree Harvester",
		"description": "Plucked 1009 pieces of Fruit",
		"category": "Trees",
		"imageUrl": "https://childrenofur.com/assets/achievements/overpaid_executive_fruit_tree_harvester.png",
		"related": [
			"entrylevel-fruit-tree-harvester",
			"midmanagement-fruit-tree-harvester",
			"president-and-ceo-of-fruit-tree-harvesting-inc"
		]
	},
	"president_and_ceo_of_fruit_tree_harvesting_inc": {
		"name": "President and CEO of Fruit Tree Harvesting Inc.",
		"description": "Plucked 5003 pieces of Fruit",
		"category": "Trees",
		"imageUrl": "https://childrenofur.com/assets/achievements/president_and_ceo_of_fruit_tree_harvesting_inc.png",
		"related": [
			"entrylevel-fruit-tree-harvester",
			"midmanagement-fruit-tree-harvester",
			"overpaid-executive-fruit-tree-harvester"
		]
	},
	"sprout_stroker": {
		"name": "Sprout Stroker",
		"description": "Administered a sound petting to 11 Gas Plants",
		"category": "Trees",
		"imageUrl": "https://childrenofur.com/assets/achievements/sprout_stroker.png",
		"related": [
			"bush-whacker",
			"shrub-snuggler"
		]
	},
	"bush_whacker": {
		"name": "Bush Whacker",
		"description": "Administered a sound petting to 41 Gas Plants",
		"category": "Trees",
		"imageUrl": "https://childrenofur.com/assets/achievements/bush_whacker.png",
		"related": [
			"shrub-snuggler",
			"sprout-stroker"
		]
	},
	"shrub_snuggler": {
		"name": "Shrub Snuggler",
		"description": "Administered a sound petting to 127 Gas Plants",
		"category": "Trees",
		"imageUrl": "https://childrenofur.com/assets/achievements/shrub_snuggler.png",
		"related": [
			"bush-whacker",
			"sprout-stroker"
		]
	},
	"little_squirt": {
		"name": "Little Squirt",
		"description": "Meticulously watered 11 gaspingly hot Gas Plants",
		"category": "Trees",
		"imageUrl": "https://childrenofur.com/assets/achievements/little_squirt.png",
		"related": [
			"mayor-of-sprayerville",
			"wet-william"
		]
	},
	"wet_william": {
		"name": "Wet William",
		"description": "Meticulously watered 41 gaspingly hot Gas Plants",
		"category": "Trees",
		"imageUrl": "https://childrenofur.com/assets/achievements/wet_william.png",
		"related": [
			"little-squirt",
			"mayor-of-sprayerville"
		]
	},
	"mayor_of_sprayerville": {
		"name": "Mayor of Sprayerville",
		"description": "Meticulously watered 127 gaspingly hot Gas Plants",
		"category": "Trees",
		"imageUrl": "https://childrenofur.com/assets/achievements/mayor_of_sprayerville.png",
		"related": [
			"little-squirt",
			"wet-william"
		]
	},
	"mad_gasser": {
		"name": "Mad Gasser",
		"description": "Futzed around with each kind of gas",
		"category": "Trees",
		"imageUrl": "https://childrenofur.com/assets/achievements/mad_gasser.png",
		"related": [
		]
	},
	"occasional_gas_fancier": {
		"name": "Occasional Gas Fancier",
		"description": "Harvested 101 gaseous Vapors",
		"category": "Trees",
		"imageUrl": "https://childrenofur.com/assets/achievements/occasional_gas_fancier.png",
		"related": [
			"dedicated-gas-fancier",
			"hobbyist-gas-fancier",
			"obsessive-gas-fancier"
		]
	},
	"hobbyist_gas_fancier": {
		"name": "Hobbyist Gas Fancier",
		"description": "Harvested 503 gaseous Vapors",
		"category": "Trees",
		"imageUrl": "https://childrenofur.com/assets/achievements/hobbyist_gas_fancier.png",
		"related": [
			"dedicated-gas-fancier",
			"obsessive-gas-fancier",
			"occasional-gas-fancier"
		]
	},
	"dedicated_gas_fancier": {
		"name": "Dedicated Gas Fancier",
		"description": "Harvested 1009 gaseous Vapors",
		"category": "Trees",
		"imageUrl": "https://childrenofur.com/assets/achievements/dedicated_gas_fancier.png",
		"related": [
			"hobbyist-gas-fancier",
			"obsessive-gas-fancier",
			"occasional-gas-fancier"
		]
	},
	"obsessive_gas_fancier": {
		"name": "Obsessive Gas Fancier",
		"description": "Harvested 5003 gaseous Vapors",
		"category": "Trees",
		"imageUrl": "https://childrenofur.com/assets/achievements/obsessive_gas_fancier.png",
		"related": [
			"dedicated-gas-fancier",
			"hobbyist-gas-fancier",
			"occasional-gas-fancier"
		]
	},
	"gas_dabbler": {
		"name": "Gas Dabbler",
		"description": "Successfully converted 53 Gases",
		"category": "Trees",
		"imageUrl": "https://childrenofur.com/assets/achievements/gas_dabbler.png",
		"related": [
			"bonafide-gas-wrangler",
			"gastronaut"
		]
	},
	"bonafide_gas_wrangler": {
		"name": "Bonafide Gas Wrangler",
		"description": "Successfully converted 503 Gases",
		"category": "Trees",
		"imageUrl": "https://childrenofur.com/assets/achievements/bonafide_gas_wrangler.png",
		"related": [
			"gas-dabbler",
			"gastronaut"
		]
	},
	"gastronaut": {
		"name": "Gastronaut",
		"description": "Successfully converted 2003 Gasses",
		"category": "Trees",
		"imageUrl": "https://childrenofur.com/assets/achievements/gastronaut.png",
		"related": [
			"bonafide-gas-wrangler",
			"gas-dabbler"
		]
	},
	"mulcher": {
		"name": "Mulcher",
		"description": "Tended 7 weedy patches",
		"category": "Trees",
		"imageUrl": "https://childrenofur.com/assets/achievements/mulcher.png",
		"related": [
			"betterthanaverage-mulcher",
			"fecundationist",
			"mighty-fine-mulcher",
			"pretty-fine-mulcher"
		]
	},
	"betterthanaverage_mulcher": {
		"name": "Better-Than-Average Mulcher",
		"description": "Tended 41 weedy patches",
		"category": "Trees",
		"imageUrl": "https://childrenofur.com/assets/achievements/betterthanaverage_mulcher.png",
		"related": [
			"fecundationist",
			"mighty-fine-mulcher",
			"mulcher",
			"pretty-fine-mulcher"
		]
	},
	"pretty_fine_mulcher": {
		"name": "Pretty Fine Mulcher",
		"description": "Tended 79 weedy patches",
		"category": "Trees",
		"imageUrl": "https://childrenofur.com/assets/achievements/pretty_fine_mulcher.png",
		"related": [
			"betterthanaverage-mulcher",
			"fecundationist",
			"mighty-fine-mulcher",
			"mulcher"
		]
	},
	"mighty_fine_mulcher": {
		"name": "Mighty Fine Mulcher",
		"description": "Tended 251 weedy patches",
		"category": "Trees",
		"imageUrl": "https://childrenofur.com/assets/achievements/mighty_fine_mulcher.png",
		"related": [
			"betterthanaverage-mulcher",
			"fecundationist",
			"mulcher",
			"pretty-fine-mulcher"
		]
	},
	"fecundationist": {
		"name": "Fecundationist",
		"description": "Tended 503 weedy patches",
		"category": "Trees",
		"imageUrl": "https://childrenofur.com/assets/achievements/fecundationist.png",
		"related": [
			"betterthanaverage-mulcher",
			"mighty-fine-mulcher",
			"mulcher",
			"pretty-fine-mulcher"
		]
	},
	"basic_beangrower": {
		"name": "Basic Bean-Grower",
		"description": "Planted 5 Seasoned Beans",
		"category": "Trees",
		"imageUrl": "https://childrenofur.com/assets/achievements/basic_beangrower.png",
		"related": [
			"johnny-anyseed",
			"whizbang-plantifier"
		]
	},
	"whizbang_plantifier": {
		"name": "Whiz-Bang Plantifier",
		"description": "Planted 13 Seasoned Beans",
		"category": "Trees",
		"imageUrl": "https://childrenofur.com/assets/achievements/whizbang_plantifier.png",
		"related": [
			"basic-beangrower",
			"johnny-anyseed"
		]
	},
	"johnny_anyseed": {
		"name": "Johnny Anyseed",
		"description": "Planted 37 Seasoned Beans",
		"category": "Trees",
		"imageUrl": "https://childrenofur.com/assets/achievements/johnny_anyseed.png",
		"related": [
			"basic-beangrower",
			"whizbang-plantifier"
		]
	},
	"tentative_petter": {
		"name": "Tentative Petter",
		"description": "Tentatively petted 11 Spice Plants",
		"category": "Trees",
		"imageUrl": "https://childrenofur.com/assets/achievements/tentative_petter.png",
		"related": [
			"confident-petter",
			"heavy-petter"
		]
	},
	"confident_petter": {
		"name": "Confident Petter",
		"description": "Confidently petted 41 Spice Plants",
		"category": "Trees",
		"imageUrl": "https://childrenofur.com/assets/achievements/confident_petter.png",
		"related": [
			"heavy-petter",
			"tentative-petter"
		]
	},
	"heavy_petter": {
		"name": "Heavy Petter",
		"description": "Heavily petted 127 Spice Plants",
		"category": "Trees",
		"imageUrl": "https://childrenofur.com/assets/achievements/heavy_petter.png",
		"related": [
			"confident-petter",
			"tentative-petter"
		]
	},
	"beginner_drizzler": {
		"name": "Beginner Drizzler",
		"description": "Administered a much-needed watering to 11 hot Spice Plants",
		"category": "Trees",
		"imageUrl": "https://childrenofur.com/assets/achievements/beginner_drizzler.png",
		"related": [
			"big-splasher",
			"the-hydrophile"
		]
	},
	"big_splasher": {
		"name": "Big Splasher",
		"description": "Administered a much-needed watering to 41 hot Spice Plants",
		"category": "Trees",
		"imageUrl": "https://childrenofur.com/assets/achievements/big_splasher.png",
		"related": [
			"beginner-drizzler",
			"the-hydrophile"
		]
	},
	"the_hydrophile": {
		"name": "The Hydrophile",
		"description": "Administered a much-needed watering to 127 hot Spice Plants",
		"category": "Trees",
		"imageUrl": "https://childrenofur.com/assets/achievements/the_hydrophile.png",
		"related": [
			"beginner-drizzler",
			"big-splasher"
		]
	},
	"spice_examiner": {
		"name": "Spice Examiner",
		"description": "Carefully scrutinized every spice in existence",
		"category": "Trees",
		"imageUrl": "https://childrenofur.com/assets/achievements/spice_examiner.png",
		"related": [
		]
	},
	"novice_spice_collector": {
		"name": "Novice Spice Collector",
		"description": "Harvested 101 nose-tickly Spices",
		"category": "Trees",
		"imageUrl": "https://childrenofur.com/assets/achievements/novice_spice_collector.png",
		"related": [
			"advanced-spice-collector",
			"intermediate-spice-collector",
			"master-overlord-of-the-spice-dominion"
		]
	},
	"intermediate_spice_collector": {
		"name": "Intermediate Spice Collector",
		"description": "Harvested 503 nostril-pleasing Spices",
		"category": "Trees",
		"imageUrl": "https://childrenofur.com/assets/achievements/intermediate_spice_collector.png",
		"related": [
			"advanced-spice-collector",
			"master-overlord-of-the-spice-dominion",
			"novice-spice-collector"
		]
	},
	"advanced_spice_collector": {
		"name": "Advanced Spice Collector",
		"description": "Harvested 1009 odoriferant Spices",
		"category": "Trees",
		"imageUrl": "https://childrenofur.com/assets/achievements/advanced_spice_collector.png",
		"related": [
			"intermediate-spice-collector",
			"master-overlord-of-the-spice-dominion",
			"novice-spice-collector"
		]
	},
	"master_overlord_of_the_spice_dominion": {
		"name": "Master Overlord of the Spice Dominion",
		"description": "Harvested 5003 olfactorily satisfying Spices",
		"category": "Trees",
		"imageUrl": "https://childrenofur.com/assets/achievements/master_overlord_of_the_spice_dominion.png",
		"related": [
			"advanced-spice-collector",
			"intermediate-spice-collector",
			"novice-spice-collector"
		]
	},
	"spice_intern": {
		"name": "Spice Intern",
		"description": "Converted 53 Spices",
		"category": "Trees",
		"imageUrl": "https://childrenofur.com/assets/achievements/spice_intern.png",
		"related": [
			"assistant-spice-manager",
			"executive-in-charge-of-spice-reformatation"
		]
	},
	"assistant_spice_manager": {
		"name": "Assistant Spice Manager",
		"description": "Converted 503 Spices",
		"category": "Trees",
		"imageUrl": "https://childrenofur.com/assets/achievements/assistant_spice_manager.png",
		"related": [
			"executive-in-charge-of-spice-reformatation",
			"spice-intern"
		]
	},
	"executive_in_charge_of_spice_reformatation": {
		"name": "Executive in Charge of Spice Reformatation",
		"description": "Converted 2003 Spices",
		"category": "Trees",
		"imageUrl": "https://childrenofur.com/assets/achievements/executive_in_charge_of_spice_reformatation.png",
		"related": [
			"assistant-spice-manager",
			"spice-intern"
		]
	},
	"trainee_tree_medic": {
		"name": "Trainee Tree Medic",
		"description": "Administered antidote to 23 trees",
		"category": "Trees",
		"imageUrl": "https://childrenofur.com/assets/achievements/trainee_tree_medic.png",
		"related": [
			"qualified-botanical-health-professional",
			"respected-tree-doctor",
			"world-class-tree-surgeon"
		]
	},
	"qualified_botanical_health_professional": {
		"name": "Qualified Botanical Health Professional",
		"description": "Administered antidote to 79 trees",
		"category": "Trees",
		"imageUrl": "https://childrenofur.com/assets/achievements/qualified_botanical_health_professional.png",
		"related": [
			"respected-tree-doctor",
			"trainee-tree-medic",
			"world-class-tree-surgeon"
		]
	},
	"respected_tree_doctor": {
		"name": "Respected Tree Doctor",
		"description": "Administered antidote to 127 trees",
		"category": "Trees",
		"imageUrl": "https://childrenofur.com/assets/achievements/respected_tree_doctor.png",
		"related": [
			"qualified-botanical-health-professional",
			"trainee-tree-medic",
			"world-class-tree-surgeon"
		]
	},
	"world_class_tree_surgeon": {
		"name": "World-class Tree Surgeon",
		"description": "Administered antidote to 251 trees",
		"category": "Trees",
		"imageUrl": "https://childrenofur.com/assets/achievements/world_class_tree_surgeon.png",
		"related": [
			"qualified-botanical-health-professional",
			"respected-tree-doctor",
			"trainee-tree-medic"
		]
	},
	"okbutneedsimprovement_tree_hugger": {
		"name": "OK-But-Needs-Improvement Tree Hugger",
		"description": "Braved splinters to pet 7 Trees",
		"category": "Trees",
		"imageUrl": "https://childrenofur.com/assets/achievements/okbutneedsimprovement_tree_hugger.png",
		"related": [
			"decent-tree-hugger",
			"definitelymuchbetter-tree-hugger",
			"extremely-promising-tree-hugger",
			"finallyprettygood-tree-hugger",
			"gettingthere-tree-hugger"
		]
	},
	"decent_tree_hugger": {
		"name": "Decent Tree Hugger",
		"description": "Braved splinters to pet 41 Trees",
		"category": "Trees",
		"imageUrl": "https://childrenofur.com/assets/achievements/decent_tree_hugger.png",
		"related": [
			"definitelymuchbetter-tree-hugger",
			"extremely-promising-tree-hugger",
			"finallyprettygood-tree-hugger",
			"gettingthere-tree-hugger",
			"okbutneedsimprovement-tree-hugger"
		]
	},
	"gettingthere_tree_hugger": {
		"name": "Getting-There Tree Hugger",
		"description": "Braved splinters to pet 127 Trees",
		"category": "Trees",
		"imageUrl": "https://childrenofur.com/assets/achievements/gettingthere_tree_hugger.png",
		"related": [
			"decent-tree-hugger",
			"definitelymuchbetter-tree-hugger",
			"extremely-promising-tree-hugger",
			"finallyprettygood-tree-hugger",
			"okbutneedsimprovement-tree-hugger"
		]
	},
	"extremely_promising_tree_hugger": {
		"name": "Extremely Promising Tree Hugger",
		"description": "Braved splinters to pet 283 Trees",
		"category": "Trees",
		"imageUrl": "https://childrenofur.com/assets/achievements/extremely_promising_tree_hugger.png",
		"related": [
			"decent-tree-hugger",
			"definitelymuchbetter-tree-hugger",
			"finallyprettygood-tree-hugger",
			"gettingthere-tree-hugger",
			"okbutneedsimprovement-tree-hugger"
		]
	},
	"definitelymuchbetter_tree_hugger": {
		"name": "Definitely-Much-Better Tree Hugger",
		"description": "Braved splinters to pet 503 Trees",
		"category": "Trees",
		"imageUrl": "https://childrenofur.com/assets/achievements/definitelymuchbetter_tree_hugger.png",
		"related": [
			"decent-tree-hugger",
			"extremely-promising-tree-hugger",
			"finallyprettygood-tree-hugger",
			"gettingthere-tree-hugger",
			"okbutneedsimprovement-tree-hugger"
		]
	},
	"finallyprettygood_tree_hugger": {
		"name": "Finally-Pretty-Good Tree Hugger",
		"description": "Braved splinters to pet 1009 Trees",
		"category": "Trees",
		"imageUrl": "https://childrenofur.com/assets/achievements/finallyprettygood_tree_hugger.png",
		"related": [
			"decent-tree-hugger",
			"definitelymuchbetter-tree-hugger",
			"extremely-promising-tree-hugger",
			"gettingthere-tree-hugger",
			"okbutneedsimprovement-tree-hugger"
		]
	},
	"novice_precipitator": {
		"name": "Novice Precipitator",
		"description": "Watered 7 Trees",
		"category": "Trees",
		"imageUrl": "https://childrenofur.com/assets/achievements/novice_precipitator.png",
		"related": [
			"firstrate-rainmaker",
			"golden-watering-can",
			"h2oh-award",
			"secondrate-rainmaker",
			"superior-irrigationist"
		]
	},
	"secondrate_rainmaker": {
		"name": "Second-Rate Rainmaker",
		"description": "Watered 41 Trees",
		"category": "Trees",
		"imageUrl": "https://childrenofur.com/assets/achievements/secondrate_rainmaker.png",
		"related": [
			"firstrate-rainmaker",
			"golden-watering-can",
			"h2oh-award",
			"novice-precipitator",
			"superior-irrigationist"
		]
	},
	"firstrate_rainmaker": {
		"name": "First-Rate Rainmaker",
		"description": "Watered 127 Trees",
		"category": "Trees",
		"imageUrl": "https://childrenofur.com/assets/achievements/firstrate_rainmaker.png",
		"related": [
			"golden-watering-can",
			"h2oh-award",
			"novice-precipitator",
			"secondrate-rainmaker",
			"superior-irrigationist"
		]
	},
	"h2oh_award": {
		"name": "H2Oh! Award",
		"description": "Watered 283 Trees",
		"category": "Trees",
		"imageUrl": "https://childrenofur.com/assets/achievements/h2oh_award.png",
		"related": [
			"firstrate-rainmaker",
			"golden-watering-can",
			"novice-precipitator",
			"secondrate-rainmaker",
			"superior-irrigationist"
		]
	},
	"superior_irrigationist": {
		"name": "Superior Irrigationist",
		"description": "Watered 503 Trees",
		"category": "Trees",
		"imageUrl": "https://childrenofur.com/assets/achievements/superior_irrigationist.png",
		"related": [
			"firstrate-rainmaker",
			"golden-watering-can",
			"h2oh-award",
			"novice-precipitator",
			"secondrate-rainmaker"
		]
	},
	"golden_watering_can": {
		"name": "Golden Watering Can",
		"description": "Watered 1009 Trees",
		"category": "Trees",
		"imageUrl": "https://childrenofur.com/assets/achievements/golden_shower_award.png",
		"related": [
			"firstrate-rainmaker",
			"h2oh-award",
			"novice-precipitator",
			"secondrate-rainmaker",
			"superior-irrigationist"
		]
	},
	"wood_wacker": {
		"name": "Wood Wacker",
		"description": "Used a Hatchet to gently harvest Planks from Wood Trees 17 times",
		"category": "Trees",
		"imageUrl": "https://childrenofur.com/assets/achievements/wood_wacker.png",
		"related": [
			"loggerator",
			"timber-jack"
		]
	},
	"timber_jack": {
		"name": "Timber Jack",
		"description": "Used a Hatchet to gently harvest Planks from Wood Trees 79 times",
		"category": "Trees",
		"imageUrl": "https://childrenofur.com/assets/achievements/timber_jack.png",
		"related": [
			"loggerator",
			"wood-wacker"
		]
	},
	"loggerator": {
		"name": "Loggerator",
		"description": "Used a Hatchet to gently harvest Planks from Wood Trees 151 times",
		"category": "Trees",
		"imageUrl": "https://childrenofur.com/assets/achievements/loggerator.png",
		"related": [
			"timber-jack",
			"wood-wacker"
		]
	},
	"wood_abettor": {
		"name": "Wood Abettor",
		"description": "Petted and watered 7 Wood Trees to the full woody bloom of adulthood",
		"category": "Trees",
		"imageUrl": "https://childrenofur.com/assets/achievements/wood_abettor.png",
		"related": [
			"lumber-lover",
			"timber-nut"
		]
	},
	"lumber_lover": {
		"name": "Lumber Lover",
		"description": "Petted and watered 41 Wood Trees to the full woody bloom of adulthood",
		"category": "Trees",
		"imageUrl": "https://childrenofur.com/assets/achievements/lumber_lover.png",
		"related": [
			"timber-nut",
			"wood-abettor"
		]
	},
	"timber_nut": {
		"name": "Timber Nut",
		"description": "Petted and watered 103 Wood Trees to the full woody bloom of adulthood",
		"category": "Trees",
		"imageUrl": "https://childrenofur.com/assets/achievements/timber_nut.png",
		"related": [
			"lumber-lover",
			"wood-abettor"
		]
	}
}
