{
  "id": "Q11",
  "title": "Coloring Between the Lines",
  "description": "Make the street your own by moving or placing decorations.",
  "requirements": [
    {
      "id": "Q11R1",
      "text": "place or move 3 decorations",
      "type": "counter",
      "numRequired": 3,
      "eventType": "placeDeco_*",
      "iconUrl": "http://childrenofur.com/assets/entityImages/npc_cubimal_snoconevendor__x1_1_png_1354836305.png"
    }
  ],
  "rewards": {
    "img": 60,
    "currants": 50
  },
  "conversation_start": {
    "id": "Q11-CS",
    "screens": [
      {
        "paragraphs": [
          "Whoa. How did you get here? Are you allowed to be here? Why don't I remember this place?"
        ],
        "choices": [
          {
            "text": "I don't know. I think I mashed my keyboard buttons",
            "gotoScreen": 2
          },
          {
            "text": "I'm a hacker",
            "gotoScreen": 2
          }
        ]
      },
      {
        "paragraphs": [
          "This place feels less set in stone, if you will. I bet if you thought about it, you could imagine a good look for this place."
        ],
        "choices": [
          {
            "text": "What do I have to do?",
            "gotoScreen": 3
          }
        ]
      },
      {
        "paragraphs": [
          "Why don't you start by changing up the scenery.",
          "If you make a few changes, I bet it'll start feeling like home."
        ],
        "choices": [
          {
            "text": "Alright, let's knock out a wall",
            "gotoScreen": 4,
            "isQuestAccept": true
          },
          {
            "text": "I'm good for now",
            "gotoScreen": 4,
            "isQuestReject": true
          }
        ]
      }
    ]
  },
  "conversation_end": {
    "id": "Q11-CE",
    "screens": [
      {
        "paragraphs": [
          "This place is looking good already. I can't wait to see what else you have in that little head of yours."
        ],
        "choices": [
          {
            "text": "Who are you calling little?",
            "gotoScreen": 2
          }
        ]
      }
    ]
  }
}